idle spirit_0 = 0 1028 128 128
idle spirit_1 = 0 1028 128 128
idle spirit_2 = 0 1028 128 128
idle spirit_3 = 0 1028 128 128
idle spirit_4 = 0 1028 128 128
idle spirit_5 = 0 1028 128 128
idle spirit_6 = 0 1028 128 128
idle spirit_7 = 0 1028 128 128
idle spirit_8 = 0 1028 128 128
idle spirit_9 = 0 1028 128 128
idle spirit_10 = 0 1028 128 128
idle spirit_11 = 0 1028 128 128
idle spirit_12 = 0 1028 128 128
idle spirit_13 = 0 1028 128 128
idle spirit_14 = 0 1028 128 128
idle spirit_15 = 0 1028 128 128
idle spirit_16 = 0 1028 128 128
idle spirit_17 = 0 1028 128 128
idle spirit_18 = 0 1028 128 128
idle spirit_19 = 0 1028 128 128
spirit down_0 = 0 0 256 256
spirit down_1 = 0 0 256 256
spirit down_2 = 0 0 256 256
spirit down_3 = 0 0 256 256
spirit down_4 = 0 0 256 256
spirit down_5 = 0 0 256 256
spirit down_6 = 0 0 256 256
spirit down_7 = 0 0 256 256
spirit down_8 = 0 0 256 256
spirit down_9 = 0 0 256 256
spirit down_10 = 0 0 256 256
spirit down_11 = 0 0 256 256
spirit down_12 = 0 0 256 256
spirit down_13 = 0 0 256 256
spirit down_14 = 0 0 256 256
spirit down_15 = 0 0 256 256
spirit down_16 = 0 0 256 256
spirit down_17 = 0 0 256 256
spirit down_18 = 0 0 256 256
spirit down_19 = 0 0 256 256
left_0 = 516 1029 128 128
left_1 = 516 1029 128 128
left_10 = 516 1029 128 128
left_11 = 516 1029 128 128
left_12 = 516 1029 128 128
left_13 = 516 1029 128 128
left_14 = 516 1029 128 128
left_15 = 516 1029 128 128
left_16 = 516 1029 128 128
left_17 = 516 1029 128 128
left_18 = 516 1029 128 128
left_19 = 516 1029 128 128
left_2 = 516 1029 128 128
left_3 = 516 1029 128 128
left_4 = 516 1029 128 128
left_5 = 516 1029 128 128
left_6 = 516 1029 128 128
left_7 = 516 1029 128 128
left_8 = 516 1029 128 128
left_9 = 516 1029 128 128
right_0 = 903 1029 128 128
right_1 = 903 1029 128 128
right_2 = 903 1029 128 128
right_3 = 903 1029 128 128
right_4 = 903 1029 128 128
right_5 = 903 1029 128 128
right_6 = 903 1029 128 128
right_7 = 903 1029 128 128
right_8 = 903 1029 128 128
right_9 = 903 1029 128 128
right_10 = 903 1029 128 128
right_11 = 903 1029 128 128
right_12 = 903 1029 128 128
right_13 = 903 1029 128 128
right_14 = 903 1029 128 128
right_15 = 903 1029 128 128
right_16 = 903 1029 128 128
right_17 = 903 1029 128 128
right_18 = 903 1029 128 128
right_19 = 903 1029 128 128
up_0 = 1417 774 128 128
up_1 = 1417 774 128 128
up_2 = 1417 774 128 128
up_3 = 1417 774 128 128
up_4 = 1417 774 128 128
up_5 = 1417 774 128 128
up_6 = 1417 774 128 128
up_7 = 1417 774 128 128
up_8 = 1417 774 128 128
up_9 = 1417 774 128 128
up_10 = 1417 774 128 128
up_11 = 1417 774 128 128
up_12 = 1417 774 128 128
up_13 = 1417 774 128 128
up_14 = 1417 774 128 128
up_15 = 1417 774 128 128
up_16 = 1417 774 128 128
up_17 = 1417 774 128 128
up_18 = 1417 774 128 128
up_19 = 1417 774 128 128
